{
    "message": "获取视频列表成功",
    "code": 200,
    "data": {
        "data": [
            {
                "videoId": 95,
                "title": "手机泄密文件,刘玥似留学妹,奶子粉嫩逼逼嫩",
                "cId": 1,
                "description": null,
                "shortDesc": null,
                "keyword": null,
                "resolution": null,
                "type": 1,
                "hasEpisodes": 0,
                "totalEpisodes": 0,
                "status": 1,
                "vipExclusive": 0,
                "director": null,
                "posterDomain": "https://mogo.ewcdn.com",
                "playDomain": "https://mogo.ewcdn.com",
                "downloadDomain": null,
                "poster": "/upload/mogo/20240930/65e6949eb86a326b5693ee185d57c394/856480/post.js",
                "playUrl": "/upload/mogo/20240930/65e6949eb86a326b5693ee185d57c394/856480/index.m3u8",
                "downloadUrl": null,
                "viewKey": "65e6949eb86a326b5693ee185d57c394",
                "playTime": null,
                "clickCounts": 134,
                "goodCounts": 364,
                "favoriteCounts": 780,
                "userId": 0,
                "releaseDate": null,
                "isReviewed": 0,
                "reviewedAt": null,
                "updateTime": "2024-10-15 09:47:09",
                "addTime": "2024-10-12 22:20:43",
                "tags": [
                    "口交"
                ],
                "categoryName": "国产"
            },
            {
                "videoId": 124,
                "title": "淫荡乱伦家庭黑料：爆操岳母老骚逼彻底释放兽欲 我要你大鸡吧天天操我",
                "cId": 1,
                "description": null,
                "shortDesc": null,
                "keyword": null,
                "resolution": null,
                "type": 1,
                "hasEpisodes": 0,
                "totalEpisodes": 0,
                "status": 1,
                "vipExclusive": 0,
                "director": null,
                "posterDomain": "https://mogo.ewcdn.com",
                "playDomain": "https://mogo.ewcdn.com",
                "downloadDomain": null,
                "poster": "/upload/mogo/20241010/0f68b44ae57ccaa66e9620602ca293f3/1280720/post.js",
                "playUrl": "/upload/mogo/20241010/0f68b44ae57ccaa66e9620602ca293f3/1280720/index.m3u8",
                "downloadUrl": null,
                "viewKey": "0f68b44ae57ccaa66e9620602ca293f3",
                "playTime": null,
                "clickCounts": 967,
                "goodCounts": 867,
                "favoriteCounts": 515,
                "userId": 0,
                "releaseDate": null,
                "isReviewed": 0,
                "reviewedAt": null,
                "updateTime": "2024-10-15 09:47:09",
                "addTime": "2024-10-11 22:01:50",
                "tags": [
                    "乱伦"
                ],
                "categoryName": "国产"
            },
            {
                "videoId": 125,
                "title": "束缚白皙翘臀制服速插极品美鮑高潮喷液",
                "cId": 1,
                "description": null,
                "shortDesc": null,
                "keyword": null,
                "resolution": null,
                "type": 1,
                "hasEpisodes": 0,
                "totalEpisodes": 0,
                "status": 1,
                "vipExclusive": 0,
                "director": null,
                "posterDomain": "https://mogo.ewcdn.com",
                "playDomain": "https://mogo.ewcdn.com",
                "downloadDomain": null,
                "poster": "/upload/mogo/20241010/fa4e4b63f22a93cde951792e171e8c7e/1280720/post.js",
                "playUrl": "/upload/mogo/20241010/fa4e4b63f22a93cde951792e171e8c7e/1280720/index.m3u8",
                "downloadUrl": null,
                "viewKey": "fa4e4b63f22a93cde951792e171e8c7e",
                "playTime": null,
                "clickCounts": 512,
                "goodCounts": 999,
                "favoriteCounts": 296,
                "userId": 0,
                "releaseDate": null,
                "isReviewed": 0,
                "reviewedAt": null,
                "updateTime": "2024-10-15 09:47:09",
                "addTime": "2024-10-11 22:01:40",
                "tags": [
                    "调教",
                    "捆绑"
                ],
                "categoryName": "国产"
            },
            {
                "videoId": 126,
                "title": "乱伦家庭 19岁少女超爱小舅的臭鸡鸡",
                "cId": 1,
                "description": null,
                "shortDesc": null,
                "keyword": null,
                "resolution": null,
                "type": 1,
                "hasEpisodes": 0,
                "totalEpisodes": 0,
                "status": 1,
                "vipExclusive": 0,
                "director": null,
                "posterDomain": "https://mogo.ewcdn.com",
                "playDomain": "https://mogo.ewcdn.com",
                "downloadDomain": null,
                "poster": "/upload/mogo/20241010/f96c9935090b55451a9118a74102796a/1280720/post.js",
                "playUrl": "/upload/mogo/20241010/f96c9935090b55451a9118a74102796a/1280720/index.m3u8",
                "downloadUrl": null,
                "viewKey": "f96c9935090b55451a9118a74102796a",
                "playTime": null,
                "clickCounts": 394,
                "goodCounts": 662,
                "favoriteCounts": 139,
                "userId": 0,
                "releaseDate": null,
                "isReviewed": 0,
                "reviewedAt": null,
                "updateTime": "2024-10-15 09:47:09",
                "addTime": "2024-10-11 22:01:31",
                "tags": [
                    "少女",
                    "乱伦"
                ],
                "categoryName": "国产"
            },
            {
                "videoId": 127,
                "title": "变态少妇的自缚游戏，惨遭外送小哥硬上",
                "cId": 1,
                "description": null,
                "shortDesc": null,
                "keyword": null,
                "resolution": null,
                "type": 1,
                "hasEpisodes": 0,
                "totalEpisodes": 0,
                "status": 1,
                "vipExclusive": 0,
                "director": null,
                "posterDomain": "https://mogo.ewcdn.com",
                "playDomain": "https://mogo.ewcdn.com",
                "downloadDomain": null,
                "poster": "/upload/mogo/20241010/b4fffbb01da8f849f1a35191029226d9/1280720/post.js",
                "playUrl": "/upload/mogo/20241010/b4fffbb01da8f849f1a35191029226d9/1280720/index.m3u8",
                "downloadUrl": null,
                "viewKey": "b4fffbb01da8f849f1a35191029226d9",
                "playTime": null,
                "clickCounts": 597,
                "goodCounts": 875,
                "favoriteCounts": 177,
                "userId": 0,
                "releaseDate": null,
                "isReviewed": 0,
                "reviewedAt": null,
                "updateTime": "2024-10-15 09:47:09",
                "addTime": "2024-10-11 22:01:08",
                "tags": [
                    "白虎",
                    "口交",
                    "调教",
                    "捆绑"
                ],
                "categoryName": "国产"
            },
            {
                "videoId": 128,
                "title": "模特娜娜吊缚W字捆綁凌辱道具狂插潮喷",
                "cId": 1,
                "description": null,
                "shortDesc": null,
                "keyword": null,
                "resolution": null,
                "type": 1,
                "hasEpisodes": 0,
                "totalEpisodes": 0,
                "status": 1,
                "vipExclusive": 0,
                "director": null,
                "posterDomain": "https://mogo.ewcdn.com",
                "playDomain": "https://mogo.ewcdn.com",
                "downloadDomain": null,
                "poster": "/upload/mogo/20241010/19858e64dda0ec3daec545c4d78a7e51/1280720/post.js",
                "playUrl": "/upload/mogo/20241010/19858e64dda0ec3daec545c4d78a7e51/1280720/index.m3u8",
                "downloadUrl": null,
                "viewKey": "19858e64dda0ec3daec545c4d78a7e51",
                "playTime": null,
                "clickCounts": 668,
                "goodCounts": 977,
                "favoriteCounts": 497,
                "userId": 0,
                "releaseDate": null,
                "isReviewed": 0,
                "reviewedAt": null,
                "updateTime": "2024-10-15 09:47:09",
                "addTime": "2024-10-11 22:00:53",
                "tags": [
                    "白虎",
                    "少女",
                    "调教",
                    "捆绑"
                ],
                "categoryName": "国产"
            },
            {
                "videoId": 129,
                "title": "工地水电工之狼狈 黑丝包臀裙收验员女神",
                "cId": 1,
                "description": null,
                "shortDesc": null,
                "keyword": null,
                "resolution": null,
                "type": 1,
                "hasEpisodes": 0,
                "totalEpisodes": 0,
                "status": 1,
                "vipExclusive": 0,
                "director": null,
                "posterDomain": "https://mogo.ewcdn.com",
                "playDomain": "https://mogo.ewcdn.com",
                "downloadDomain": null,
                "poster": "/upload/mogo/20241010/8631900acf5127dc3eab7fef9d7c55ba/19201080/post.js",
                "playUrl": "/upload/mogo/20241010/8631900acf5127dc3eab7fef9d7c55ba/19201080/index.m3u8",
                "downloadUrl": null,
                "viewKey": "8631900acf5127dc3eab7fef9d7c55ba",
                "playTime": null,
                "clickCounts": 412,
                "goodCounts": 896,
                "favoriteCounts": 354,
                "userId": 0,
                "releaseDate": null,
                "isReviewed": 0,
                "reviewedAt": null,
                "updateTime": "2024-10-15 09:47:09",
                "addTime": "2024-10-11 22:00:36",
                "tags": [
                    "黑丝",
                    "调教",
                    "捆绑",
                    "剧情"
                ],
                "categoryName": "国产"
            },
            {
                "videoId": 130,
                "title": "直插子宫，痛苦又享受的性爱之旅",
                "cId": 1,
                "description": null,
                "shortDesc": null,
                "keyword": null,
                "resolution": null,
                "type": 1,
                "hasEpisodes": 0,
                "totalEpisodes": 0,
                "status": 1,
                "vipExclusive": 0,
                "director": null,
                "posterDomain": "https://mogo.ewcdn.com",
                "playDomain": "https://mogo.ewcdn.com",
                "downloadDomain": null,
                "poster": "/upload/mogo/20241010/7bce1e834c4612921b10a5d75366ec85/1280720/post.js",
                "playUrl": "/upload/mogo/20241010/7bce1e834c4612921b10a5d75366ec85/1280720/index.m3u8",
                "downloadUrl": null,
                "viewKey": "7bce1e834c4612921b10a5d75366ec85",
                "playTime": null,
                "clickCounts": 575,
                "goodCounts": 559,
                "favoriteCounts": 402,
                "userId": 0,
                "releaseDate": null,
                "isReviewed": 0,
                "reviewedAt": null,
                "updateTime": "2024-10-15 09:47:09",
                "addTime": "2024-10-11 22:00:27",
                "tags": [
                    "口交",
                    "中出",
                    "乱伦"
                ],
                "categoryName": "国产"
            },
            {
                "videoId": 131,
                "title": "伺候自己家小叔子没想到我竟然可以这么快高潮",
                "cId": 1,
                "description": null,
                "shortDesc": null,
                "keyword": null,
                "resolution": null,
                "type": 1,
                "hasEpisodes": 0,
                "totalEpisodes": 0,
                "status": 1,
                "vipExclusive": 0,
                "director": null,
                "posterDomain": "https://mogo.ewcdn.com",
                "playDomain": "https://mogo.ewcdn.com",
                "downloadDomain": null,
                "poster": "/upload/mogo/20241010/aa809226b9e71367124e968a64e7efe2/1280720/post.js",
                "playUrl": "/upload/mogo/20241010/aa809226b9e71367124e968a64e7efe2/1280720/index.m3u8",
                "downloadUrl": null,
                "viewKey": "aa809226b9e71367124e968a64e7efe2",
                "playTime": null,
                "clickCounts": 857,
                "goodCounts": 420,
                "favoriteCounts": 321,
                "userId": 0,
                "releaseDate": null,
                "isReviewed": 0,
                "reviewedAt": null,
                "updateTime": "2024-10-15 09:47:09",
                "addTime": "2024-10-11 22:00:19",
                "tags": [
                    "丝袜",
                    "巨乳",
                    "口交",
                    "乱伦"
                ],
                "categoryName": "国产"
            },
            {
                "videoId": 132,
                "title": "饥渴的继妹自慰时被哥哥看到 竟然掰穴诱惑主动口交求干 最后射了好多",
                "cId": 1,
                "description": null,
                "shortDesc": null,
                "keyword": null,
                "resolution": null,
                "type": 1,
                "hasEpisodes": 0,
                "totalEpisodes": 0,
                "status": 1,
                "vipExclusive": 0,
                "director": null,
                "posterDomain": "https://mogo.ewcdn.com",
                "playDomain": "https://mogo.ewcdn.com",
                "downloadDomain": null,
                "poster": "/upload/mogo/20241010/221515f75b8fd24b347d8d6062eeb086/1280720/post.js",
                "playUrl": "/upload/mogo/20241010/221515f75b8fd24b347d8d6062eeb086/1280720/index.m3u8",
                "downloadUrl": null,
                "viewKey": "221515f75b8fd24b347d8d6062eeb086",
                "playTime": null,
                "clickCounts": 678,
                "goodCounts": 698,
                "favoriteCounts": 756,
                "userId": 0,
                "releaseDate": null,
                "isReviewed": 0,
                "reviewedAt": null,
                "updateTime": "2024-10-15 09:47:09",
                "addTime": "2024-10-11 22:00:10",
                "tags": [
                    "口交",
                    "剧情",
                    "乱伦"
                ],
                "categoryName": "国产"
            }
        ],
        "currentPage": 1,
        "pageSize": 10,
        "total": 329,
        "totalPages": 33
    },
    "errors": null
}