{
  "message": "获取视频列表成功",
  "code": 200,
  "data": {
      "data": [
          {
              "videoId": 1,
              "title": "BJ女团熊猫班骰子大赛纯享版",
              "cId": 79,
              "description": null,
              "shortDesc": null,
              "keyword": null,
              "resolution": null,
              "type": 1,
              "hasEpisodes": 0,
              "totalEpisodes": 0,
              "status": 1,
              "vipExclusive": 0,
              "director": null,
              "posterDomain": "https://mogo.ewcdn.com",
              "playDomain": "https://mogo.ewcdn.com",
              "downloadDomain": null,
              "poster": "/upload/mogo/20241014/3c6eee5b840ce8f50aae36d1c739b66c/19201080/post.js",
              "playUrl": "/upload/mogo/20241014/3c6eee5b840ce8f50aae36d1c739b66c/19201080/index.m3u8",
              "downloadUrl": null,
              "viewKey": "3c6eee5b840ce8f50aae36d1c739b66c",
              "playTime": null,
              "clickCounts": 0,
              "goodCounts": 0,
              "favoriteCounts": 0,
              "userId": 0,
              "releaseDate": null,
              "isReviewed": 0,
              "reviewedAt": null,
              "updateTime": "2024-10-15 03:52:33",
              "addTime": "2024-10-15 00:02:23",
              "tags": [
                  "诱惑"
              ],
              "categoryName": "其他"
          },
          {
              "videoId": 2,
              "title": "BJ女团熊猫班骰子大赛 第四期",
              "cId": 79,
              "description": null,
              "shortDesc": null,
              "keyword": null,
              "resolution": null,
              "type": 1,
              "hasEpisodes": 0,
              "totalEpisodes": 0,
              "status": 1,
              "vipExclusive": 0,
              "director": null,
              "posterDomain": "https://mogo.ewcdn.com",
              "playDomain": "https://mogo.ewcdn.com",
              "downloadDomain": null,
              "poster": "/upload/mogo/20241014/7c8290383d6e4b0c0f51ffb0c2d8b91f/19201080/post.js",
              "playUrl": "/upload/mogo/20241014/7c8290383d6e4b0c0f51ffb0c2d8b91f/19201080/index.m3u8",
              "downloadUrl": null,
              "viewKey": "7c8290383d6e4b0c0f51ffb0c2d8b91f",
              "playTime": null,
              "clickCounts": 0,
              "goodCounts": 0,
              "favoriteCounts": 0,
              "userId": 0,
              "releaseDate": null,
              "isReviewed": 0,
              "reviewedAt": null,
              "updateTime": "2024-10-15 03:52:33",
              "addTime": "2024-10-15 00:02:18",
              "tags": [
                  "诱惑"
              ],
              "categoryName": "其他"
          }
      ],
      "currentPage": 1,
      "pageSize": 2,
      "total": 1000,
      "totalPages": 500
  },
  "errors": null
}